%YAML 1.1
%TAG !u! tag:unity3d.com,2011:
--- !u!74 &7400000
AnimationClip:
  m_ObjectHideFlags: 0
  m_PrefabParentObject: {fileID: 0}
  m_PrefabInternal: {fileID: 0}
  m_Name: DerbyGirlAnim
  serializedVersion: 6
  m_Legacy: 0
  m_Compressed: 0
  m_UseHighQualityCurve: 1
  m_RotationCurves: []
  m_CompressedRotationCurves: []
  m_EulerCurves: []
  m_PositionCurves: []
  m_ScaleCurves: []
  m_FloatCurves: []
  m_PPtrCurves:
  - curve:
    - time: 0
      value: {fileID: 21300000, guid: f3e56ba203077d24580d0904a4bf757c, type: 3}
    - time: 0.083333336
      value: {fileID: 21300002, guid: f3e56ba203077d24580d0904a4bf757c, type: 3}
    - time: 0.16666667
      value: {fileID: 21300004, guid: f3e56ba203077d24580d0904a4bf757c, type: 3}
    - time: 0.25
      value: {fileID: 21300006, guid: f3e56ba203077d24580d0904a4bf757c, type: 3}
    - time: 0.33333334
      value: {fileID: 21300008, guid: f3e56ba203077d24580d0904a4bf757c, type: 3}
    - time: 0.41666666
      value: {fileID: 21300010, guid: f3e56ba203077d24580d0904a4bf757c, type: 3}
    - time: 0.5
      value: {fileID: 21300012, guid: f3e56ba203077d24580d0904a4bf757c, type: 3}
    - time: 0.5833333
      value: {fileID: 21300014, guid: f3e56ba203077d24580d0904a4bf757c, type: 3}
    - time: 0.6666667
      value: {fileID: 21300016, guid: f3e56ba203077d24580d0904a4bf757c, type: 3}
    - time: 0.75
      value: {fileID: 21300018, guid: f3e56ba203077d24580d0904a4bf757c, type: 3}
    - time: 0.8333333
      value: {fileID: 21300020, guid: f3e56ba203077d24580d0904a4bf757c, type: 3}
    - time: 0.9166667
      value: {fileID: 21300022, guid: f3e56ba203077d24580d0904a4bf757c, type: 3}
    - time: 1
      value: {fileID: 21300024, guid: f3e56ba203077d24580d0904a4bf757c, type: 3}
    - time: 1.0833334
      value: {fileID: 21300026, guid: f3e56ba203077d24580d0904a4bf757c, type: 3}
    - time: 1.1666666
      value: {fileID: 21300028, guid: f3e56ba203077d24580d0904a4bf757c, type: 3}
    - time: 1.25
      value: {fileID: 21300030, guid: f3e56ba203077d24580d0904a4bf757c, type: 3}
    - time: 1.3333334
      value: {fileID: 21300032, guid: f3e56ba203077d24580d0904a4bf757c, type: 3}
    - time: 1.4166666
      value: {fileID: 21300034, guid: f3e56ba203077d24580d0904a4bf757c, type: 3}
    - time: 1.5
      value: {fileID: 21300036, guid: f3e56ba203077d24580d0904a4bf757c, type: 3}
    - time: 1.5833334
      value: {fileID: 21300038, guid: f3e56ba203077d24580d0904a4bf757c, type: 3}
    - time: 1.6666666
      value: {fileID: 21300040, guid: f3e56ba203077d24580d0904a4bf757c, type: 3}
    - time: 1.75
      value: {fileID: 21300042, guid: f3e56ba203077d24580d0904a4bf757c, type: 3}
    - time: 1.8333334
      value: {fileID: 21300044, guid: f3e56ba203077d24580d0904a4bf757c, type: 3}
    - time: 1.9166666
      value: {fileID: 21300046, guid: f3e56ba203077d24580d0904a4bf757c, type: 3}
    - time: 2
      value: {fileID: 21300048, guid: f3e56ba203077d24580d0904a4bf757c, type: 3}
    - time: 2.0833333
      value: {fileID: 21300050, guid: f3e56ba203077d24580d0904a4bf757c, type: 3}
    - time: 2.1666667
      value: {fileID: 21300052, guid: f3e56ba203077d24580d0904a4bf757c, type: 3}
    - time: 2.25
      value: {fileID: 21300054, guid: f3e56ba203077d24580d0904a4bf757c, type: 3}
    - time: 2.3333333
      value: {fileID: 21300056, guid: f3e56ba203077d24580d0904a4bf757c, type: 3}
    - time: 2.4166667
      value: {fileID: 21300058, guid: f3e56ba203077d24580d0904a4bf757c, type: 3}
    - time: 2.5
      value: {fileID: 21300060, guid: f3e56ba203077d24580d0904a4bf757c, type: 3}
    - time: 2.5833333
      value: {fileID: 21300062, guid: f3e56ba203077d24580d0904a4bf757c, type: 3}
    - time: 2.6666667
      value: {fileID: 21300064, guid: f3e56ba203077d24580d0904a4bf757c, type: 3}
    - time: 2.75
      value: {fileID: 21300066, guid: f3e56ba203077d24580d0904a4bf757c, type: 3}
    - time: 2.8333333
      value: {fileID: 21300068, guid: f3e56ba203077d24580d0904a4bf757c, type: 3}
    - time: 2.9166667
      value: {fileID: 21300070, guid: f3e56ba203077d24580d0904a4bf757c, type: 3}
    - time: 3
      value: {fileID: 21300072, guid: f3e56ba203077d24580d0904a4bf757c, type: 3}
    - time: 3.0833333
      value: {fileID: 21300074, guid: f3e56ba203077d24580d0904a4bf757c, type: 3}
    - time: 3.1666667
      value: {fileID: 21300076, guid: f3e56ba203077d24580d0904a4bf757c, type: 3}
    - time: 3.25
      value: {fileID: 21300078, guid: f3e56ba203077d24580d0904a4bf757c, type: 3}
    - time: 3.3333333
      value: {fileID: 21300080, guid: f3e56ba203077d24580d0904a4bf757c, type: 3}
    - time: 3.4166667
      value: {fileID: 21300082, guid: f3e56ba203077d24580d0904a4bf757c, type: 3}
    - time: 3.5
      value: {fileID: 21300084, guid: f3e56ba203077d24580d0904a4bf757c, type: 3}
    - time: 3.5833333
      value: {fileID: 21300086, guid: f3e56ba203077d24580d0904a4bf757c, type: 3}
    - time: 3.6666667
      value: {fileID: 21300088, guid: f3e56ba203077d24580d0904a4bf757c, type: 3}
    - time: 3.75
      value: {fileID: 21300090, guid: f3e56ba203077d24580d0904a4bf757c, type: 3}
    - time: 3.8333333
      value: {fileID: 21300092, guid: f3e56ba203077d24580d0904a4bf757c, type: 3}
    - time: 3.9166667
      value: {fileID: 21300094, guid: f3e56ba203077d24580d0904a4bf757c, type: 3}
    - time: 4
      value: {fileID: 21300096, guid: f3e56ba203077d24580d0904a4bf757c, type: 3}
    - time: 4.0833335
      value: {fileID: 21300098, guid: f3e56ba203077d24580d0904a4bf757c, type: 3}
    - time: 4.1666665
      value: {fileID: 21300100, guid: f3e56ba203077d24580d0904a4bf757c, type: 3}
    - time: 4.25
      value: {fileID: 21300102, guid: f3e56ba203077d24580d0904a4bf757c, type: 3}
    - time: 4.3333335
      value: {fileID: 21300104, guid: f3e56ba203077d24580d0904a4bf757c, type: 3}
    - time: 4.4166665
      value: {fileID: 21300106, guid: f3e56ba203077d24580d0904a4bf757c, type: 3}
    - time: 4.5
      value: {fileID: 21300108, guid: f3e56ba203077d24580d0904a4bf757c, type: 3}
    - time: 4.5833335
      value: {fileID: 21300110, guid: f3e56ba203077d24580d0904a4bf757c, type: 3}
    - time: 4.6666665
      value: {fileID: 21300112, guid: f3e56ba203077d24580d0904a4bf757c, type: 3}
    - time: 4.75
      value: {fileID: 21300114, guid: f3e56ba203077d24580d0904a4bf757c, type: 3}
    - time: 4.8333335
      value: {fileID: 21300116, guid: f3e56ba203077d24580d0904a4bf757c, type: 3}
    - time: 4.9166665
      value: {fileID: 21300118, guid: f3e56ba203077d24580d0904a4bf757c, type: 3}
    attribute: m_Sprite
    path: 
    classID: 212
    script: {fileID: 0}
  m_SampleRate: 12
  m_WrapMode: 0
  m_Bounds:
    m_Center: {x: 0, y: 0, z: 0}
    m_Extent: {x: 0, y: 0, z: 0}
  m_ClipBindingConstant:
    genericBindings:
    - path: 0
      attribute: 0
      script: {fileID: 0}
      classID: 212
      customType: 23
      isPPtrCurve: 1
    pptrCurveMapping:
    - {fileID: 21300000, guid: f3e56ba203077d24580d0904a4bf757c, type: 3}
    - {fileID: 21300002, guid: f3e56ba203077d24580d0904a4bf757c, type: 3}
    - {fileID: 21300004, guid: f3e56ba203077d24580d0904a4bf757c, type: 3}
    - {fileID: 21300006, guid: f3e56ba203077d24580d0904a4bf757c, type: 3}
    - {fileID: 21300008, guid: f3e56ba203077d24580d0904a4bf757c, type: 3}
    - {fileID: 21300010, guid: f3e56ba203077d24580d0904a4bf757c, type: 3}
    - {fileID: 21300012, guid: f3e56ba203077d24580d0904a4bf757c, type: 3}
    - {fileID: 21300014, guid: f3e56ba203077d24580d0904a4bf757c, type: 3}
    - {fileID: 21300016, guid: f3e56ba203077d24580d0904a4bf757c, type: 3}
    - {fileID: 21300018, guid: f3e56ba203077d24580d0904a4bf757c, type: 3}
    - {fileID: 21300020, guid: f3e56ba203077d24580d0904a4bf757c, type: 3}
    - {fileID: 21300022, guid: f3e56ba203077d24580d0904a4bf757c, type: 3}
    - {fileID: 21300024, guid: f3e56ba203077d24580d0904a4bf757c, type: 3}
    - {fileID: 21300026, guid: f3e56ba203077d24580d0904a4bf757c, type: 3}
    - {fileID: 21300028, guid: f3e56ba203077d24580d0904a4bf757c, type: 3}
    - {fileID: 21300030, guid: f3e56ba203077d24580d0904a4bf757c, type: 3}
    - {fileID: 21300032, guid: f3e56ba203077d24580d0904a4bf757c, type: 3}
    - {fileID: 21300034, guid: f3e56ba203077d24580d0904a4bf757c, type: 3}
    - {fileID: 21300036, guid: f3e56ba203077d24580d0904a4bf757c, type: 3}
    - {fileID: 21300038, guid: f3e56ba203077d24580d0904a4bf757c, type: 3}
    - {fileID: 21300040, guid: f3e56ba203077d24580d0904a4bf757c, type: 3}
    - {fileID: 21300042, guid: f3e56ba203077d24580d0904a4bf757c, type: 3}
    - {fileID: 21300044, guid: f3e56ba203077d24580d0904a4bf757c, type: 3}
    - {fileID: 21300046, guid: f3e56ba203077d24580d0904a4bf757c, type: 3}
    - {fileID: 21300048, guid: f3e56ba203077d24580d0904a4bf757c, type: 3}
    - {fileID: 21300050, guid: f3e56ba203077d24580d0904a4bf757c, type: 3}
    - {fileID: 21300052, guid: f3e56ba203077d24580d0904a4bf757c, type: 3}
    - {fileID: 21300054, guid: f3e56ba203077d24580d0904a4bf757c, type: 3}
    - {fileID: 21300056, guid: f3e56ba203077d24580d0904a4bf757c, type: 3}
    - {fileID: 21300058, guid: f3e56ba203077d24580d0904a4bf757c, type: 3}
    - {fileID: 21300060, guid: f3e56ba203077d24580d0904a4bf757c, type: 3}
    - {fileID: 21300062, guid: f3e56ba203077d24580d0904a4bf757c, type: 3}
    - {fileID: 21300064, guid: f3e56ba203077d24580d0904a4bf757c, type: 3}
    - {fileID: 21300066, guid: f3e56ba203077d24580d0904a4bf757c, type: 3}
    - {fileID: 21300068, guid: f3e56ba203077d24580d0904a4bf757c, type: 3}
    - {fileID: 21300070, guid: f3e56ba203077d24580d0904a4bf757c, type: 3}
    - {fileID: 21300072, guid: f3e56ba203077d24580d0904a4bf757c, type: 3}
    - {fileID: 21300074, guid: f3e56ba203077d24580d0904a4bf757c, type: 3}
    - {fileID: 21300076, guid: f3e56ba203077d24580d0904a4bf757c, type: 3}
    - {fileID: 21300078, guid: f3e56ba203077d24580d0904a4bf757c, type: 3}
    - {fileID: 21300080, guid: f3e56ba203077d24580d0904a4bf757c, type: 3}
    - {fileID: 21300082, guid: f3e56ba203077d24580d0904a4bf757c, type: 3}
    - {fileID: 21300084, guid: f3e56ba203077d24580d0904a4bf757c, type: 3}
    - {fileID: 21300086, guid: f3e56ba203077d24580d0904a4bf757c, type: 3}
    - {fileID: 21300088, guid: f3e56ba203077d24580d0904a4bf757c, type: 3}
    - {fileID: 21300090, guid: f3e56ba203077d24580d0904a4bf757c, type: 3}
    - {fileID: 21300092, guid: f3e56ba203077d24580d0904a4bf757c, type: 3}
    - {fileID: 21300094, guid: f3e56ba203077d24580d0904a4bf757c, type: 3}
    - {fileID: 21300096, guid: f3e56ba203077d24580d0904a4bf757c, type: 3}
    - {fileID: 21300098, guid: f3e56ba203077d24580d0904a4bf757c, type: 3}
    - {fileID: 21300100, guid: f3e56ba203077d24580d0904a4bf757c, type: 3}
    - {fileID: 21300102, guid: f3e56ba203077d24580d0904a4bf757c, type: 3}
    - {fileID: 21300104, guid: f3e56ba203077d24580d0904a4bf757c, type: 3}
    - {fileID: 21300106, guid: f3e56ba203077d24580d0904a4bf757c, type: 3}
    - {fileID: 21300108, guid: f3e56ba203077d24580d0904a4bf757c, type: 3}
    - {fileID: 21300110, guid: f3e56ba203077d24580d0904a4bf757c, type: 3}
    - {fileID: 21300112, guid: f3e56ba203077d24580d0904a4bf757c, type: 3}
    - {fileID: 21300114, guid: f3e56ba203077d24580d0904a4bf757c, type: 3}
    - {fileID: 21300116, guid: f3e56ba203077d24580d0904a4bf757c, type: 3}
    - {fileID: 21300118, guid: f3e56ba203077d24580d0904a4bf757c, type: 3}
  m_AnimationClipSettings:
    serializedVersion: 2
    m_AdditiveReferencePoseClip: {fileID: 0}
    m_AdditiveReferencePoseTime: 0
    m_StartTime: 0
    m_StopTime: 5
    m_OrientationOffsetY: 0
    m_Level: 0
    m_CycleOffset: 0
    m_HasAdditiveReferencePose: 0
    m_LoopTime: 1
    m_LoopBlend: 0
    m_LoopBlendOrientation: 0
    m_LoopBlendPositionY: 0
    m_LoopBlendPositionXZ: 0
    m_KeepOriginalOrientation: 0
    m_KeepOriginalPositionY: 1
    m_KeepOriginalPositionXZ: 0
    m_HeightFromFeet: 0
    m_Mirror: 0
  m_EditorCurves: []
  m_EulerEditorCurves: []
  m_HasGenericRootTransform: 0
  m_HasMotionFloatCurves: 0
  m_GenerateMotionCurves: 0
  m_IsEmpty: 0
  m_Events: []
